{
  "header.rates": "Taxas",
  "header.rules": "Regulamento",
  "header.media": "Multimedia",
  "header.races.globaldxt": "Probas GlobalDXT",
  "header.races.friends": "Probas Amigas",
  "header.races.tracks": "Tracks",
  "header.contact": "Contacto",
  "header.enroll": "Inscríbete",
  "languageSwitcher.spanish": "Español",
  "languageSwitcher.galician": "Galego",
  "slider.caption": "Supera os teus límites",
  "contact.banner": "Apertura de inscripcións o 16 de novembro de 2018",
  "contact.title": "Contacto",
  "contact.info.title": "Podes poñerte en contacto con nos enchendo este formulario",
  "contact.email": "Enderezo electrónico",
  "contact.name": "Nome",
  "contact.message": "Mensaxe",
  "home.send": "Enviar",
  "home.liveRace": "Proba en directo",
  "home.liveRace.followRace": "Segue ó minuto a proba a traves das redes sociais",
  "home.enrolled": "Inscritos",
  "home.enrolled.list": "Consulta a lista de inscritos",
  "home.results": "Resultados da proba",
  "home.results.checkPosition": "Comproba a túa posición de esta edición",
  "home.description": "“PONTEVEDRA 4 PICOS BIKE - DESAFIO RÍAS BAIXAS” é unha proba NON COMPETITIVA na que os participantes deberan ascender picos que rodean a cidade de Pontevedra, pudendo participar na modalidade de 4 picos ou 2 picos",
  "home.raceDate": "11 de maio de 2019",
  "home.captionBanner": "ATRÉVETE A PARTICIPAR",
  "home.captionBanner.text": "Quinta edición na cidade de Pontevedra, na que poderán participar deportistas e aficionados nun reto único",
  "home.enroll": "Inscríbete",
  "rates.banner": "Apertura de inscripcións o 16 de novembro de 2018",
  "rates.title": "Taxas",
  "rate.info.title": "Apertura de inscripcions  o 16 de nomvembro de 2018",
  "rate.info.text": "A inscrición abrirase o 16/11/2018, DEIXANDO UN PERÍODO ESPECIAL  ata o 25 de novembro para aqueles que estean rexistrados na última edición. En xeral, o rexistro abre o 26 de novembro de 2018 e pecha o 28 de abril de 2019 ou ata unha capacidade total máxima de 1.800 participantes en todas as categorías BTT.",
  "rates.first.step": "Do 16 al 25 de novembro de 2018",
  "rates.second.step": "Do 26 de novembro ó 26 de decembro de 2018",
  "rates.third.step": "Do 27 de decembro de 2018 ó 28 de febreiro de 2019",
  "rates.fourth.step": "Do 1 de marzo ó 28 de abril de 2019",
  "rates.enroll": "Inscríbete",
  "rules.banner": "Apertura de inscripcións o 16 de novembro de 2018",
  "rules.title": "Regulamento",
  "rules.info.title": "Podes descargar o regulamento completo nesta sección",
  "rules.info.text": "'Pontevedra 4 Picos Bike - Desafío Rías Baixas', é unha proba non competitiva, onde se dan diferentes agasallos aos participantes. Esta é unha marcha deportiva das  reguladas no artigo 9 do Regulamento de ciclismo en bicicleta no marco dunha modalidade ciclista  deseñada como un exercicio de lecer e turismo ou cultural, excluíndo a competición. A proba estará  suxeita ao disposto nos artigos 15 e seguintes do anexo II do Real decreto 1428/2003, do 21 de novembro, polo que se aproba o Regulamento xeral de circulación para a aplicación e desenvolvemento do texto articulado da lei de tráfico, circulación de vehículos automóbiles e seguridade viaria, aprobado polo Real Decreto Lexislativo 339/1990, do 2 de marzo."
}