<?xml version="1.0" encoding="utf-8"?>
<!-- Generator: Adobe Illustrator 22.0.0, SVG Export Plug-In . SVG Version: 6.00 Build 0)  -->
<svg version="1.1" id="Layer_1" xmlns="http://www.w3.org/2000/svg" xmlns:xlink="http://www.w3.org/1999/xlink" x="0px" y="0px"
	 viewBox="0 0 841.9 595.3" style="enable-background:new 0 0 841.9 595.3;" xml:space="preserve">
<style type="text/css">
	.st0{fill-rule:evenodd;clip-rule:evenodd;fill:#FFED00;}
	.st1{fill:#FFED00;}
	.st2{font-family:'Arial-Black';}
	.st3{font-size:39.343px;}
	.st4{fill:#221758;}
	.st5{font-family:'ArialMT';}
	.st6{font-size:39.776px;}
	.st7{fill-rule:evenodd;clip-rule:evenodd;fill:#221758;}
	.st8{fill:#1F09A2;}
	.st9{font-size:69.678px;}
	.st10{font-size:33.336px;}
</style>
<path class="st0" d="M148.1,205.4c-2,0.1-5.1-0.5-7.4-0.6c-6.3-0.2-9.5-0.2-15.8,0c-5.9,0.2-15.9,1.9-20.9,3.3
	c-4.4,1.2-8,2.4-11.9,4.4c-5,2.6-11.7,7.5-9.6,14c2.8,8.6,18,12.8,26,14.6c17.2,3.9,41.5,3.1,57.6-2.1c7-2.2,17.4-6.8,18.4-14
	c1-7.1-8.4-12.1-13.9-14.3c-0.7-0.3-2.4-0.8-2.9-1.2c1-0.1,5.7,0.5,7.4,0.5c8.2,0.3,11.4,0.3,19.5-0.3c1-0.1,2.8-0.2,3.8-0.4
	c2.2-0.4,4.7-0.7,6.9-1.1c8.5-1.5,22.9-5.7,27.3-13.2c2.7-4.6,0.4-8.9-2.3-11.4c-5.4-5-13.7-7.9-22.6-9.8c-17.2-3.8-41.8-3.4-57.8,2
	c-6.9,2.3-17.4,6.7-18.4,13.9c-0.7,4.8,3.2,8.3,5.8,10.2c2.3,1.7,5.2,3.1,7.9,4.2C145.8,204.4,147.7,204.9,148.1,205.4"/>
<path class="st0" d="M181.9,245l-127.4,0c0.3,0.7,8.5,8.7,9.3,9.4c9.3,9.4,18.9,18.8,28.1,28.1c3.9,4,10.2,9.4,14.5,13.4l9.8,9
	c1.8,1.7,14.3,13,14.9,13.3c0.7-0.5,3.6-3.7,4.5-4.6c1.4-1.5,3-3.3,4.4-4.7c2.9-3.1,5.9-6.2,8.8-9.5c4.3-4.8,8.9-9.5,13.2-14.3
	l22.1-23.8c3-3.2,5.9-6.5,8.8-9.5c3.1-3.2,5.8-6.4,8.8-9.5l8.8-9.5c2.8-3.2,5.7-6.1,8.8-9.5c2.9-3.3,5.8-6.2,8.8-9.5
	c5.2-5.8,12.2-13.5,17.6-19.1c2.9-3,5.9-6.5,8.8-9.5c0.9-1,17.2-18.4,17.6-19.2c-0.6,0.3-2.3,1.9-2.8,2.4c-0.9,0.8-1.9,1.7-2.8,2.5
	l-44.9,39.8c-9.3,8.1-18.7,16.8-28,24.9l-9.9,8.8C183.2,244.9,183.2,245,181.9,245"/>
<text transform="matrix(1.5123 0 0 1 91.3423 203.527)" class="st1 st2 st3">2</text>
<text transform="matrix(1.0918 0 0 1 86.9253 234.0344)" class="st4 st5 st6">anos</text>
<path class="st7" d="M169.1,182.3c16.6,0,30.1,3.9,30.1,8.7c0,4.8-13.5,8.7-30.1,8.7c-16.6,0-30.1-3.9-30.1-8.7
	C139.1,186.2,152.5,182.3,169.1,182.3"/>
<text transform="matrix(1 0 0 1 234.2285 271.822)" class="st8 st2 st9">V</text>
<text transform="matrix(1 0 0 1 286.0454 271.822)" class="st8 st2 st9">OZ Y SONIDO</text>
<text transform="matrix(1 0 0 1 236.6914 300.7902)" class="st8 st5 st10">p</text>
<text transform="matrix(1 0 0 1 288.3877 300.7902)" class="st8 st5 st10">r</text>
<text transform="matrix(1 0 0 1 332.644 300.7902)" class="st8 st5 st10">o</text>
<text transform="matrix(1 0 0 1 384.3403 300.7902)" class="st8 st5 st10">d</text>
<text transform="matrix(1 0 0 1 436.0361 300.7902)" class="st8 st5 st10">u</text>
<text transform="matrix(1 0 0 1 487.7324 300.7902)" class="st8 st5 st10">c</text>
<text transform="matrix(1 0 0 1 537.5566 300.7902)" class="st8 st5 st10">c</text>
<text transform="matrix(1 0 0 1 587.3799 300.7902)" class="st8 st5 st10">i</text>
<text transform="matrix(1 0 0 1 627.9414 300.7902)" class="st8 st5 st10">o</text>
<text transform="matrix(1 0 0 1 679.6377 300.7902)" class="st8 st5 st10">n</text>
<text transform="matrix(1 0 0 1 731.334 300.7902)" class="st8 st5 st10">e</text>
<text transform="matrix(1 0 0 1 783.0303 300.7902)" class="st8 st5 st10">s</text>
</svg>
