<?xml version="1.0" encoding="utf-8"?>
<!-- Generator: Adobe Illustrator 22.0.0, SVG Export Plug-In . SVG Version: 6.00 Build 0)  -->
<svg version="1.1" id="Layer_1" xmlns="http://www.w3.org/2000/svg" xmlns:xlink="http://www.w3.org/1999/xlink" x="0px" y="0px"
	 viewBox="0 0 1010.5 425.7" style="enable-background:new 0 0 1010.5 425.7;" xml:space="preserve">
<style type="text/css">
	.st0{fill:#F9A62B;}
	.st1{fill:#2C2F31;}
</style>
<rect x="327.1" y="420.7" class="st0" width="350.6" height="5"/>
<path class="st0" d="M550.2,216.5l-33.5-27.2c-0.8-0.6-0.9-1.7-0.4-2.5c2.1-3,3.4-6.9,3.4-11.7c0-3.6-3-6.6-6.6-6.6
	c-3.6,0-6.6,2.9-6.6,6.6c0,0.9-0.1,1.7-0.3,2.4c-0.3,1.3-1.9,1.9-3,1l0,0c-1.2-1-3-1-4.2,0.1l-1.4,1.2c-0.7,0.6-1.7,0.6-2.4,0.1
	c-1.4-1.1-2.4-2.9-2.4-5.8c0-6,5.9-7.4,7-7.6c3.2-0.5,5.5-3.3,5.5-6.5v-16.8c0-1,0.8-1.9,1.9-1.9h2.7h1.2c0.9,0,1.7-0.6,1.8-1.5
	l8.5-42.4c0.2-1.2-0.7-2.2-1.8-2.2h-4.4h-1.4c-1,0-1.9-0.8-1.9-1.9l-0.3-85.5c0,0,0,0,0-0.1V3c0-1.7-1.4-3-3-3h-13.5
	c-1.7,0-3,1.4-3,3v3.9v0.7v85.6c0,1-0.8,1.9-1.9,1.9h-5.7c-1.1,0-2,1-1.9,2.1l6,42.4c0.1,0.9,0.9,1.6,1.9,1.6h1.2h0.3V154
	c0,0.7-0.4,1.3-1,1.7c-5.6,2.9-11.5,8.6-11.5,18.4c0,6.1,2.1,10.8,5.3,14.1c0.7,0.8,0.7,2-0.1,2.7L454.4,217
	c-1.3,1.1-0.5,3.3,1.2,3.3h4.3c0.5,0,0.9-0.2,1.2-0.5l30.3-26.1c0.5-0.4,1.2-0.6,1.8-0.4c2.6,0.9,5.3,1.4,8,1.4
	c2.7,0,5.3-0.6,7.8-1.8c0.7-0.3,1.4-0.2,2,0.2l32.9,26.6c0.3,0.3,0.8,0.4,1.2,0.4l3.8,0C550.9,220.2,551.8,217.7,550.2,216.5
	 M505.5,92.5c0,0.8-0.7,1.5-1.5,1.5h-3.3c-0.8,0-1.5-0.7-1.5-1.5V12.9c0-0.8,0.7-1.5,1.5-1.5h3.3c0.8,0,1.5,0.7,1.5,1.5V92.5z"/>
<path class="st1" d="M112.3,253.5l-8.6,17.1C93.3,262.9,83.1,259,73.1,259c-15.9,0-28.4,5.6-37.6,16.8c-9.2,11.2-13.8,26-13.8,44.4
	c0,17.5,4.5,31.6,13.5,42.3c9,10.7,21.3,16,36.8,16c11,0,20-3.3,26.8-9.9v-35.5h-21v-17.6h41.7v66.1c-5.5,4.7-13.2,8.5-23.1,11.3
	c-9.9,2.9-19.5,4.3-28.8,4.3c-20.9,0-37.4-7.1-49.5-21.3C6.1,361.8,0,342.9,0,319.4c0-23.5,6.6-42.5,19.9-57.1
	c13.3-14.6,31.2-21.9,53.8-21.9C89.5,240.4,102.4,244.8,112.3,253.5"/>
<polygon class="st1" points="171.3,261.6 171.3,303.7 221.5,303.7 221.5,321.3 171.3,321.3 171.3,376 240.1,376 240.1,394.6 
	150.6,394.6 150.6,243 241.2,243 241.2,261.6 "/>
<path class="st1" d="M257.4,387.7l7.6-19c3.9,2.8,8.7,5.2,14.4,7.1c5.8,1.9,10.9,2.8,15.5,2.8c8.1,0,14.6-2.2,19.5-6.6
	c4.9-4.4,7.4-10,7.4-16.9c0-5.1-1.4-9.9-4.1-14.2c-2.7-4.4-9.6-9.2-20.6-14.3l-12.2-5.7c-10.4-4.8-17.6-10.6-21.7-17.2
	C259,297,257,289,257,279.7c0-11.3,4-20.7,12-28.2c8-7.5,18.3-11.2,30.9-11.2c16.8,0,28.4,2.7,35,8.2l-6.1,18c-2.8-2-7-3.9-12.6-5.8
	c-5.7-1.9-10.9-2.8-15.7-2.8c-7,0-12.6,2-16.6,6c-4,4-6.1,9.1-6.1,15.4c0,3.9,0.7,7.4,2.2,10.6c1.4,3.2,3.5,5.8,6.1,8
	c2.6,2.1,7.9,5.1,15.9,9l12.4,5.9c10.4,4.9,17.6,10.8,21.8,17.5c4.2,6.8,6.3,15.4,6.3,25.9c0,11.4-4.6,21.1-13.7,29
	c-9.1,7.9-21.4,11.9-36.7,11.9C278.4,397.2,266.9,394.1,257.4,387.7"/>
<path class="st1" d="M757.8,253.5l-8.6,17.1c-10.4-7.7-20.6-11.6-30.6-11.6c-15.9,0-28.4,5.6-37.6,16.8c-9.2,11.2-13.8,26-13.8,44.4
	c0,17.5,4.5,31.6,13.5,42.3c9,10.7,21.3,16,36.8,16c11,0,20-3.3,26.8-9.9v-35.5h-21v-17.6h41.7v66.1c-5.5,4.7-13.2,8.5-23.1,11.3
	c-9.9,2.9-19.5,4.3-28.8,4.3c-20.9,0-37.4-7.1-49.5-21.3c-12.1-14.2-18.2-33-18.2-56.6c0-23.5,6.6-42.5,19.9-57.1
	c13.3-14.6,31.2-21.9,53.8-21.9C735,240.4,747.9,244.8,757.8,253.5"/>
<path class="st1" d="M882.3,394.6l-10.5-32h-56.4l-11.2,32H781l61.6-153.7h5.5l57.1,153.7H882.3z M844.4,280.7l-23.5,66.8h45
	L844.4,280.7z"/>
<polygon class="st1" points="921.2,394.6 921.2,243 941.9,243 941.9,376 1010.5,376 1010.5,394.6 "/>
<polygon class="st1" points="489.4,375.8 471.4,278.3 438.3,377.8 433.1,377.8 399,278.3 381.4,375.8 361.8,375.8 390.1,224.1 
	399.5,224.1 435.7,334.8 469,224.1 478.3,224.1 509.1,375.8 "/>
<path class="st1" d="M611.8,375.8l-10.5-32h-56.4l-11.2,32h-23.2L572.1,222h5.5l57.1,153.7H611.8z M573.9,261.8l-23.5,66.8h45
	L573.9,261.8z"/>
</svg>
