<?xml version="1.0" encoding="utf-8"?>
<!-- Generator: Adobe Illustrator 22.0.0, SVG Export Plug-In . SVG Version: 6.00 Build 0)  -->
<svg version="1.1" id="Layer_1" xmlns="http://www.w3.org/2000/svg" xmlns:xlink="http://www.w3.org/1999/xlink" x="0px" y="0px"
	 viewBox="0 0 427.8 106.3" style="enable-background:new 0 0 427.8 106.3;" xml:space="preserve">
<style type="text/css">
	.st0{fill:#D50057;}
	.st1{fill:#231F20;}
	.st2{fill-rule:evenodd;clip-rule:evenodd;fill:#231F20;}
</style>
<path class="st0" d="M53.1,39c7.8,0,14.2,6.3,14.2,14.2c0,7.8-6.3,14.2-14.2,14.2C45.3,67.3,39,61,39,53.1C39,45.3,45.3,39,53.1,39
	 M101.9,28L101.9,28c-3-3-6.9-4.5-10.9-4.5c-3.9,0-7.8,1.5-10.8,4.4l-1.8,1.8c2.9,3.1,5.2,6.5,6.7,10.2c1.7,4.1,2.6,8.6,2.6,13.3
	c0,4.5-0.8,8.7-2.4,12.7l16.4-16.4c3-3,4.4-6.9,4.4-10.8C106.3,34.8,104.8,30.9,101.9,28 M101.8,78.4L101.8,78.4
	c3-3,4.5-6.9,4.5-10.8c0-3.9-1.5-7.8-4.4-10.8l-1.8-1.8L78.5,76.6l1.8,1.8c3,3,6.9,4.4,10.8,4.4C95,82.8,98.9,81.3,101.8,78.4
	 M78.3,101.9L78.3,101.9c3-3,4.5-6.9,4.5-10.9c0-3.9-1.5-7.8-4.4-10.8l-1.8-1.8c-3.1,2.9-6.5,5.2-10.2,6.7
	c-4.1,1.7-8.6,2.6-13.3,2.6c-4.5,0-8.7-0.8-12.7-2.4l16.4,16.4c3,3,6.9,4.4,10.8,4.4C71.5,106.3,75.3,104.8,78.3,101.9 M27.9,101.8
	L27.9,101.8c3,3,6.9,4.5,10.8,4.5c3.9,0,7.8-1.5,10.8-4.4l1.8-1.8L29.7,78.5l-1.8,1.8c-3,3-4.4,6.9-4.4,10.8
	C23.5,95,24.9,98.9,27.9,101.8 M4.4,78.3L4.4,78.3c3,3,6.9,4.5,10.9,4.5c3.9,0,7.8-1.5,10.8-4.4l1.8-1.8c-2.9-3.1-5.2-6.5-6.7-10.2
	c-1.7-4.1-2.6-8.6-2.6-13.3c0-4.5,0.8-8.7,2.4-12.7L4.4,56.8c-3,3-4.4,6.9-4.4,10.8C0,71.5,1.5,75.3,4.4,78.3 M4.5,27.9L4.5,27.9
	c-3,3-4.5,6.9-4.5,10.8c0,3.9,1.5,7.8,4.4,10.8l1.8,1.8l21.6-21.6L26,27.9c-3-3-6.9-4.4-10.8-4.4C11.3,23.5,7.4,25,4.5,27.9 M28,4.4
	L28,4.4c-3,3-4.5,6.9-4.5,10.9c0,3.9,1.5,7.8,4.4,10.8l1.8,1.8c3.1-2.9,6.5-5.2,10.2-6.7c4.1-1.7,8.6-2.6,13.3-2.6
	c4.5,0,8.7,0.8,12.7,2.4L49.5,4.4c-3-3-6.9-4.4-10.8-4.4C34.8,0,30.9,1.5,28,4.4 M78.4,4.5L78.4,4.5c-3-3-6.9-4.5-10.8-4.5
	c-3.9,0-7.8,1.5-10.8,4.4L55,6.2l21.6,21.6l1.8-1.8c3-3,4.4-6.9,4.4-10.8C82.8,11.3,81.3,7.4,78.4,4.5 M41,82.8
	c3.8,1.6,7.9,2.3,12.3,2.3c4.3,0,8.4-0.8,12.1-2.3c3.7-1.6,7.2-3.9,10.3-7c3.1-3.1,5.4-6.6,7-10.3c1.6-3.8,2.3-7.9,2.3-12.3
	c0-4.3-0.8-8.4-2.3-12.1c-1.6-3.8-3.9-7.2-7-10.4c-3.1-3.1-6.5-5.5-10.3-7.1c-3.7-1.6-7.8-2.4-12.1-2.4c-4.4,0-8.5,0.8-12.3,2.4
	c-3.8,1.6-7.2,3.9-10.3,7.1c-3.1,3.1-5.4,6.6-7,10.4c-1.6,3.8-2.3,7.8-2.3,12.1c0,4.4,0.8,8.5,2.3,12.3c1.6,3.8,3.9,7.2,7,10.3
	C33.7,78.9,37.2,81.2,41,82.8"/>
<path class="st1" d="M423.7,86.5h2.6c0.6,0,0.9,0.2,0.9,0.6v0.1c0,0.4-0.2,0.6-0.5,0.6h-2.9c-1,0-1.6,0.2-1.9,0.7
	c-0.3,0.3-0.4,0.7-0.4,1.2c0,1,0.5,1.6,1.6,2c2.1,1.1,3.3,1.7,3.6,1.9c0.8,0.7,1.2,1.5,1.2,2.5c0,1.4-0.7,2.4-2.1,3.1
	c-0.4,0.1-0.7,0.2-1,0.2h-4c-0.3,0-0.5-0.2-0.5-0.6v-0.1c0-0.4,0.3-0.7,0.8-0.7h3.7c0.8,0,1.4-0.5,1.8-1.4c0-0.1,0-0.2,0.1-0.5
	c0-0.9-0.5-1.6-1.6-2c-2.2-1.1-3.4-1.8-3.8-2c-0.7-0.7-1.1-1.5-1.1-2.4v-0.1c0-1.3,0.7-2.3,2.1-3C422.5,86.6,423,86.5,423.7,86.5
	 M401.2,91.7h3.4c0.3,0.1,0.5,0.2,0.5,0.5v0.2c0,0.4-0.3,0.6-0.8,0.6c-1.3,0-2.3,0-3,0c-0.4,0-0.5-0.2-0.5-0.7v0
	C400.8,91.9,400.9,91.7,401.2,91.7 M404.2,86.5c0.6,0,0.8,0.2,0.8,0.5c0,0,0,0.1,0,0.2c0,0.4-0.2,0.6-0.5,0.6h-4.6v10.3h4.4
	c0.5,0,0.7,0.2,0.7,0.6v0c0,0.4-0.2,0.7-0.6,0.7h-5.3c-0.4,0-0.6-0.2-0.6-0.6V87.2c0-0.4,0.3-0.7,0.8-0.7H404.2z M382.8,86.5
	c0.4,0,0.7,0.2,0.7,0.7v11.6c0,0.4-0.2,0.6-0.6,0.6h-0.2c-0.4,0-0.6-0.2-0.6-0.7V93h-2.1c-0.4,0-1,0-1.8,0c-0.3-0.1-0.5-0.3-0.5-0.5
	v-0.2c0-0.3,0.1-0.5,0.4-0.6c1.2,0,2.1,0,2.7,0h1.2v-4.4C382.2,86.8,382.4,86.5,382.8,86.5 M376.4,86.5c0.4,0,0.6,0.2,0.6,0.5v11.8
	c0,0.4-0.2,0.5-0.6,0.5h-0.1c-0.4,0-0.6-0.3-0.6-0.9V87.4c0-0.4,0.1-0.7,0.3-0.8C376.1,86.6,376.2,86.6,376.4,86.5 M359.8,86.5
	c0.5,0,0.7,0.1,0.8,0.3c0,0,0,0.2,0.1,0.4c0,0.4-0.2,0.6-0.5,0.6h-2.7v11c0,0.3-0.2,0.5-0.6,0.5h-0.2c-0.4,0-0.6-0.2-0.6-0.7V87.8
	h-2.7c-0.3,0-0.5-0.2-0.5-0.6v-0.1c0-0.4,0.3-0.7,0.8-0.7H359.8z M331.4,89.6v6.6c0,0.5,0.2,1,0.6,1.4c0.3,0.3,0.8,0.5,1.6,0.5h0.7
	c1,0,1.6-0.3,1.9-0.9c0.2-0.3,0.3-0.6,0.3-1v-6.6c0-1.3-1.1-1.9-2.3-1.9c-1.2,0-2.3,0-2.8,1.4C331.4,89.3,331.4,89.5,331.4,89.6
	 M333.7,86.5h0.6c1.4,0,2.4,0.4,2.9,1.3c0.4,0.5,0.7,1.1,0.7,1.9v6.6c0,1.1-0.5,2-1.5,2.7c-0.4,0.3-1.1,0.5-2.1,0.5h-0.7
	c-1.6,0-2.7-0.7-3.3-2.1c-0.1-0.3-0.2-0.7-0.2-1v-6.6c0-1.3,0.7-2.2,2-2.9C332.5,86.6,333,86.5,333.7,86.5 M309.3,86.5
	c0.4,0,0.7,0.3,0.7,0.8v10.7h4.4c0.5,0,0.8,0.2,0.8,0.7c0,0.4-0.2,0.6-0.5,0.6h-5.4c-0.4,0-0.6-0.3-0.6-0.9v-11
	c0-0.6,0.2-0.9,0.5-0.9C309.2,86.5,309.2,86.5,309.3,86.5 M290,86.5h2.7c0.6,0,0.9,0.2,0.9,0.6v0.1c0,0.4-0.2,0.6-0.5,0.6h-3
	c-0.9,0-1.5,0.2-1.7,0.5c-0.4,0.4-0.6,0.9-0.6,1.5v6.4c0,0.8,0.5,1.4,1.4,1.8c0.2,0,0.3,0.1,0.5,0.1h3.4c0.5,0,0.7,0.2,0.7,0.7
	c0,0.4-0.2,0.6-0.6,0.6h-3.5c-1.2,0-2.2-0.6-2.9-1.9c-0.2-0.4-0.2-0.8-0.2-1.2v-6.5c0-0.9,0.3-1.7,1-2.3
	C287.9,86.8,288.8,86.5,290,86.5 M252.8,86.5c0.4,0,0.7,0.3,0.7,0.8v10.7h4.4c0.5,0,0.8,0.2,0.8,0.7c0,0.4-0.2,0.6-0.5,0.6h-5.4
	c-0.4,0-0.6-0.3-0.6-0.9v-11c0-0.6,0.2-0.9,0.5-0.9C252.7,86.5,252.7,86.5,252.8,86.5 M232.6,86.5c0.4,0,0.7,0.4,0.8,1.2
	c2.4,7.2,3.7,10.9,3.7,11c0,0.4-0.2,0.6-0.5,0.6h-5.7c-0.4,0-0.6-0.2-0.6-0.7v0c0-0.4,0.2-0.6,0.7-0.6h4.6l-2.9-8.9h0
	c0,0-1.1,3.3-3.3,9.9c-0.1,0.2-0.3,0.3-0.5,0.3h-0.2c-0.3,0-0.5-0.2-0.6-0.7c0-0.1,1.3-4,4-11.9C232.2,86.6,232.4,86.5,232.6,86.5
	 M212.3,86.5c0.4,0,0.6,0.3,0.6,0.8v11.4c0,0.5-0.2,0.7-0.6,0.7h-0.2c-0.4,0-0.6-0.2-0.6-0.5V87.1C211.7,86.7,211.9,86.5,212.3,86.5
	L212.3,86.5z M193,86.5h2.7c0.6,0,0.9,0.2,0.9,0.6v0.1c0,0.4-0.2,0.6-0.5,0.6h-3c-0.9,0-1.5,0.2-1.7,0.5c-0.4,0.4-0.6,0.9-0.6,1.5
	v6.4c0,0.8,0.5,1.4,1.4,1.8c0.2,0,0.3,0.1,0.5,0.1h3.4c0.5,0,0.7,0.2,0.7,0.7c0,0.4-0.2,0.6-0.6,0.6h-3.5c-1.2,0-2.2-0.6-2.9-1.9
	c-0.2-0.4-0.2-0.8-0.2-1.2v-6.5c0-0.9,0.3-1.7,1-2.3C190.9,86.8,191.8,86.5,193,86.5 M170.5,91.7h3.4c0.3,0.1,0.5,0.2,0.5,0.5v0.2
	c0,0.4-0.3,0.6-0.8,0.6c-1.3,0-2.3,0-3,0c-0.4,0-0.5-0.2-0.5-0.7v0C170.1,91.9,170.2,91.7,170.5,91.7 M173.5,86.5
	c0.6,0,0.8,0.2,0.8,0.5c0,0,0,0.1,0,0.2c0,0.4-0.2,0.6-0.5,0.6h-4.6v10.3h4.4c0.5,0,0.7,0.2,0.7,0.6v0c0,0.4-0.2,0.7-0.6,0.7h-5.3
	c-0.4,0-0.6-0.2-0.6-0.6V87.2c0-0.4,0.3-0.7,0.8-0.7H173.5z M146.1,86.5h3.2c1.4,0,2.4,0.4,2.9,1.3c0.4,0.5,0.7,1.1,0.7,1.9v1.5
	c0,1.3-0.7,2.2-2,2.9c-0.4,0.1-0.7,0.2-1,0.2h-2c-0.4,0-0.6-0.2-0.6-0.7v0c0.1-0.4,0.2-0.6,0.5-0.6h1.6c1,0,1.6-0.3,1.9-0.9
	c0.2-0.3,0.3-0.6,0.3-1v-1.4c0-0.9-0.5-1.5-1.5-1.8c-0.3,0-0.6,0-0.7,0h-2.8v11c0,0.4-0.2,0.6-0.6,0.6h-0.2c-0.4,0-0.6-0.2-0.6-0.7
	V87.1C145.2,86.7,145.5,86.5,146.1,86.5 M126,86.5h2.6c0.6,0,0.9,0.2,0.9,0.6v0.1c0,0.4-0.2,0.6-0.5,0.6H126c-1,0-1.6,0.2-1.9,0.7
	c-0.3,0.3-0.4,0.7-0.4,1.2c0,1,0.5,1.6,1.6,2c2.1,1.1,3.3,1.7,3.6,1.9c0.8,0.7,1.2,1.5,1.2,2.5c0,1.4-0.7,2.4-2.1,3.1
	c-0.4,0.1-0.7,0.2-1,0.2h-4c-0.3,0-0.5-0.2-0.5-0.6v-0.1c0-0.4,0.3-0.7,0.8-0.7h3.7c0.8,0,1.4-0.5,1.8-1.4c0-0.1,0-0.2,0.1-0.5
	c0-0.9-0.5-1.6-1.6-2c-2.2-1.1-3.4-1.8-3.8-2c-0.7-0.7-1.1-1.5-1.1-2.4v-0.1c0-1.3,0.7-2.3,2.1-3C124.8,86.6,125.3,86.5,126,86.5"/>
<path class="st2" d="M187.3,32.7h4.2h4h9.7c1.5,0,2.7,1.2,2.7,2.7c0,1.5-1.2,2.7-2.7,2.7h-7.1v32.8c0,1.5-1.2,2.7-2.7,2.7
	c-1.5,0-2.7-1.2-2.7-2.7V38.1h-1.3h-9.6L187.3,32.7z M127.7,43.2v19.9c0,6.9,14.2,6.9,14.2,0V43.2C141.9,36.3,127.7,36.3,127.7,43.2
	 M122.3,63.3V43.1c0-13.9,24.9-13.9,24.9,0v20.1C147.3,77,122.3,77,122.3,63.3 M254.2,38.3v29.9h8.9c2.7,0,4.8-2.3,4.9-4.9v-4.4
	c0-2.7-1.7-4.1-4.1-4.9l-1.2-0.1l-0.9,0h-3.1c-0.8,0-1.4-0.3-1.9-0.8c-0.4-0.5-0.6-1.1-0.6-2v-0.1c0-0.8,0.3-1.5,0.8-1.9
	c0.5-0.4,1.2-0.6,2.1-0.6h2.2c2.7,0,4.8-2.3,4.9-4.9c0-3.3-2.1-5.2-5.3-5.4l-1,0H254.2z M252.2,32.9h7.7c6.6,0,11.7,3.6,11.7,10.8
	c0,2.6-0.9,4.8-2.6,6.8c2.7,1.8,4.5,5.2,4.5,8.4v4.5c0,5.6-4.7,10.3-10.3,10.3h-11.6c-2,0-2.7-1.1-2.7-3V36
	C248.8,33.6,250,32.9,252.2,32.9 M220.3,43.2v19.9c0,6.9,14.2,6.9,14.2,0V43.2C234.5,36.3,220.3,36.3,220.3,43.2 M215,63.3V43.1
	c0-13.9,24.9-13.9,24.9,0v20.1C239.9,77,215,77,215,63.3 M287.7,43.2v19.9c0,6.9,14.2,6.9,14.2,0V43.2
	C301.9,36.3,287.7,36.3,287.7,43.2 M282.3,63.3V43.1c0-13.9,24.9-13.9,24.9,0v20.1C307.3,77,282.3,77,282.3,63.3 M367.7,70.8
	c0-1.5-1.2-2.6-2.7-2.6h-0.5H353h-0.9V52.8v-2.2v-3.2V36v-0.6c0-1.5-1.3-2.6-2.7-2.6c-1.4,0-2.7,1.1-2.7,2.6v0.4v11.5v3.2v2.2v18.1
	c0,0.9,0.3,1.6,0.9,2.1c0.6,0.4,1.3,0.7,2.3,0.7h3h11.4h0.6C366.5,73.6,367.7,72.3,367.7,70.8 M404,33L404,33
	c-1.2,0.8-1.8,2.3-1.2,3.6l9,17.6v16.6c0,1.5,1.2,2.7,2.7,2.7c1.5,0,2.7-1.2,2.7-2.7V53.8l0-0.1c0-0.4-0.1-0.9-0.3-1.3l-9.3-18.2
	C406.9,32.9,405.2,32.2,404,33 M426.3,33L426.3,33c1.2,0.8,1.8,2.3,1.2,3.6L421.7,48c-0.7,1.3-2.2,1.6-3.6,1.2l0,0
	c-1.4-0.5-1.8-2.3-1.2-3.6l5.8-11.3C423.4,32.9,425.1,32.2,426.3,33 M316.2,43.6c0-5.7,4.8-10.7,10.5-10.7h8.5
	c1.5,0,2.7,1.2,2.7,2.7c0,1.5-1.2,2.7-2.7,2.7h-8.5c-3.1,0-4.9,2.4-5.2,5.2c-0.9,9.4,16.4,3.8,16.4,19.4c0,5.7-4.8,10.7-10.5,10.7
	h-8.7c-1.5,0-2.7-1.2-2.7-2.7c0-1.5,1.2-2.7,2.7-2.7h8.7c3.1,0,4.9-2.4,5.2-5.2C333.6,52.4,316.2,58.4,316.2,43.6 M380.1,68.2h12.4
	h0.5c1.5,0,2.7,1.1,2.7,2.6c0,1.5-1.2,2.8-2.7,2.8h-0.6h-14.4c-1,0-1.8-0.2-2.3-0.7c-0.6-0.5-0.9-1.2-0.9-2.1V35.5
	c0-0.9,0.3-1.6,0.9-2.1c0.6-0.4,1.3-0.7,2.3-0.7h14.4h0.6c1.5,0,2.7,1.3,2.7,2.8c0,1.5-1.2,2.6-2.7,2.6h-0.5h-12.4V68.2z M388,54
	h1.6h3.3c1.5,0,2.7-1.2,2.7-2.7c0-1.5-1.2-2.7-2.7-2.7h-3.3H388h-3.3c-1.5,0-2.7,1.2-2.7,2.7c0,1.5,1.2,2.7,2.7,2.7H388z
	 M170.7,38.1h-1.3v32.8c0,1.5-1.2,2.7-2.7,2.7s-2.7-1.2-2.7-2.7V38.1h-7.1c-1.5,0-2.7-1.2-2.7-2.7c0-1.5,1.2-2.7,2.7-2.7h9.7h4h9.6
	l-5.4,5.4H170.7z"/>
</svg>
