<?xml version="1.0" encoding="utf-8"?>
<!-- Generator: Adobe Illustrator 22.0.0, SVG Export Plug-In . SVG Version: 6.00 Build 0)  -->
<svg version="1.1" id="Layer_1" xmlns="http://www.w3.org/2000/svg" xmlns:xlink="http://www.w3.org/1999/xlink" x="0px" y="0px"
	 viewBox="0 0 453.5 44.5" style="enable-background:new 0 0 453.5 44.5;" xml:space="preserve">
<style type="text/css">
	.st0{fill:#404041;}
</style>
<path class="st0" d="M0,44.5C0,29.7,0,14.9,0,0c13.3,0,26.6,0,39.9,0c2.8,0,5.5,1.2,7.4,3.2c6.1,6.2,6.2,17.5-0.1,23.7
	c-2,2-4.9,3.2-7.8,3.2c-5.3,0.1-10.6,0-15.9,0c-3.5-3.6-7-7-10.5-10.5c8.9,0,17.9,0,26.8,0c1.8-1.5,1.6-4.2,1.4-6.3
	c-0.2-1.1-0.5-2.7-1.9-2.8c-9.6-0.1-19.3,0-28.9,0c0,11.3,0,22.7,0,34.1C7,44.5,3.5,44.5,0,44.5"/>
<path class="st0" d="M106,0c3.7,0,7.5,0,11.2,0c3.1,8.8,6.3,17.6,9.4,26.4c2.9-8.4,5.9-16.8,8.8-25.2c0.2-0.5,0.3-1.4,1.1-1.2
	c3.5,0,7,0,10.4,0c3.1,8.8,6.2,17.5,9.3,26.3c3.2-8.8,6.4-17.5,9.5-26.3c3.7,0,7.4,0,11.1,0c-5.3,14.8-10.7,29.7-16,44.5
	c-3,0-6.1,0-9.1,0c-3.4-9.5-6.8-19-10.2-28.5c-3.4,9.5-6.8,19-10.2,28.5c-3.1,0-6.1,0-9.2,0C116.7,29.7,111.4,14.9,106,0"/>
<path class="st0" d="M178.8,44.5c0-14.8,0-29.7,0-44.5c15,0,30.1,0,45.1,0c0,3.5,0,7,0,10.5c-11.6,0-23.1,0-34.7,0
	c0,2.2,0,4.4,0,6.5c10.8,0,21.6,0,32.4,0c0,3.5,0,7,0,10.5c-10.8,0-21.6,0-32.4,0c0,2.2,0,4.3,0,6.5c11.6,0,23.1,0,34.7,0
	c0,3.5,0,7,0,10.4C208.9,44.5,193.8,44.5,178.8,44.5"/>
<path class="st0" d="M228.2,0c13,0,25.9,0,38.9,0C269.4,0,271.8,0,274,1c3.9,1.7,6.4,5.7,7.3,9.8c1.1,5.1,0.3,10.8-3,14.9
	c-1.9,2.5-4.8,4.1-7.8,4.3c-1.8,0.1-3.5,0-5.3,0c4.4,4.8,8.7,9.7,13.1,14.5c-4.8,0-9.6,0-14.4,0c-7.4-8.3-14.9-16.6-22.3-25
	c9,0,17.9,0,26.9,0c1.6,0.1,2.5-1.6,2.6-3c0.1-1.7,0.2-3.7-0.8-5.2c-0.5-0.7-1.5-0.9-2.3-0.9c-9.8,0-19.5,0-29.3,0
	c0,11.3,0,22.7,0,34.1c-3.5,0-7,0-10.5,0C228.2,29.7,228.2,14.9,228.2,0"/>
<path class="st0" d="M393,0.1c15,0,30,0,45.1,0c0,3.5,0,6.9,0,10.4c-11.6,0-23.1,0-34.7,0c0,2.2,0,4.4,0,6.5c7.9,0,15.7,0,23.5,0
	c2.9,0,5.8,0,8.7,0c0,3.5,0,7,0,10.6c-9,0-18.1,0-27.1,0c-1.7,0-3.4,0-5.1,0c0,2.2-0.1,4.4-0.1,6.6c11.6-0.1,23.1-0.1,34.7,0
	c0.1,3.5-0.1,6.9,0.1,10.4c-15,0-30.1,0-45.1,0C393.1,29.7,393,14.9,393,0.1"/>
<path class="st0" d="M285,9.8c1.2-5,5.5-9.5,10.9-9.7c9.5,0,19.1-0.1,28.7-0.1c0.9,0,1.8,0,2.7,0.2c5.7,1.5,9.6,7.2,9.5,12.9v31.3
	c-3.5,0-6.9,0-10.4,0c-0.1-4.7,0-9.4-0.1-14.1c-10.4,0-20.9,0-31.3,0c0,4.7,0,9.4,0,14.1c-3.5,0-6.9,0-10.4,0c0-3.8,0-7.6,0-11.4
	c0-5.5,0-11,0-16.5C284.5,14.3,284.3,12,285,9.8 M295,12.8c-0.1,2.4,0,4.8-0.1,7.2c10.4,0,20.9,0,31.3,0c-0.1-2.5,0.2-5.1-0.2-7.6
	c-0.1-1.2-1.2-2.1-2.5-1.9c-8.9,0-17.8,0-26.6,0C295.8,10.4,295,11.7,295,12.8"/>
<path class="st0" d="M340.6,0c6.3,0,12.5,0,18.8,0c4.1,0.1,8.2,0,12.3,0.1c2.7,0,5.6-0.2,8.2,0.7c5.2,1.7,9.3,6.6,9.5,12
	c0.2,4.2,0,8.4,0.1,12.6c-0.1,3.3,0.3,6.7-0.8,9.9c-0.9,2.7-3,4.8-5,6.7c-0.8,0.6-1.7,1-2.5,1.4c-4.1,1.5-8.5,1-12.8,1
	c-9.2,0-18.5,0-27.7,0C340.6,29.7,340.6,14.8,340.6,0 M351.1,10.5c0,7.9,0,15.8,0,23.7c7.8,0,15.7,0,23.5,0c1.3,0,2.7-0.2,3.6-1.2
	c0.8-0.9,0.7-2.1,0.7-3.2c0-5.1,0-10.1,0-15.2c0-1,0-2-0.7-2.8c-0.9-1.1-2.4-1.3-3.7-1.3C366.8,10.5,359,10.4,351.1,10.5"/>
<path class="st0" d="M65.3,0.4c2-0.5,4.1-0.3,6.1-0.3h19.4c1.8,0,3.7-0.1,5.5,0.3c3.5,0.8,6.6,3,8.7,5.9c1.6,2.4,2.3,5.3,2.3,8.2
	c0,5.5,0,11,0,16.5c-0.1,3.5-1.5,7-4.1,9.4c-2.7,2.7-6.5,4.2-10.3,4.2c-8.2,0-16.3,0-24.5,0c-3.8,0-7.5-1.6-10.1-4.3
	c-2.6-2.5-4-6.1-4-9.7c0-5.8,0-11.5,0-17.3C54.5,7.1,59.4,1.7,65.3,0.4 M66.9,10.8c-1.5,0.5-2.2,2.2-2.1,3.7c0,5.1,0,10.1,0,15.2
	c0,1.3,0.1,2.8,1.3,3.7c1,0.7,2.4,0.8,3.6,0.8c7.5,0,14.9,0,22.4,0c1.3,0,2.7-0.1,3.7-1.1c0.9-0.9,0.9-2.2,0.9-3.4
	c0-5.2,0-10.4,0-15.6c0-1.1-0.3-2.2-1.3-2.9c-1-0.7-2.2-0.7-3.3-0.7c-7,0-14.1,0-21.1,0C69.7,10.5,68.3,10.3,66.9,10.8"/>
<path class="st0" d="M449.7,40c0.6-0.7,1.3-1.6,0.7-2.5c-0.8-1.5-2.7-0.8-4-1c0,1.9,0,3.7,0,5.6c0.3,0,1,0,1.3,0
	c0-0.8,0.1-1.6,0.1-2.4c0.6,0.7,1,1.5,1.4,2.4c0.4,0,1.1,0,1.5,0C450.4,41.4,450,40.7,449.7,40 M447.7,39c0-0.4,0-1.2,0-1.6
	c0.6,0.2,1.5,0.1,1.5,1C448.9,39,448.2,38.9,447.7,39"/>
<path class="st0" d="M453.5,38.9c-0.1-3.4-4-5.7-7.1-4.5c-2.2,0.8-3.6,3.1-3.3,5.4c0.2,2.5,2.4,4.6,4.9,4.7
	C451.1,44.8,453.9,41.9,453.5,38.9 M452.1,39.4c0.2,2.8-3.4,5-5.8,3.4c-2.8-1.4-2.5-6.1,0.5-7.1C449.3,34.5,452.4,36.7,452.1,39.4"
	/>
<path class="st0" d="M449.7,40c0.6-0.7,1.3-1.6,0.7-2.5c-0.8-1.5-2.7-0.8-4-1c0,1.9,0,3.7,0,5.6c0.3,0,1,0,1.3,0
	c0-0.8,0.1-1.6,0.1-2.4c0.6,0.7,1,1.5,1.4,2.4c0.4,0,1.1,0,1.5,0C450.4,41.4,450,40.7,449.7,40 M447.7,39c0-0.4,0-1.2,0-1.6
	c0.6,0.2,1.5,0.1,1.5,1C448.9,39,448.2,38.9,447.7,39"/>
<path class="st0" d="M449.7,40c0.6-0.7,1.3-1.6,0.7-2.5c-0.8-1.5-2.7-0.8-4-1c0,1.9,0,3.7,0,5.6c0.3,0,1,0,1.3,0
	c0-0.8,0.1-1.6,0.1-2.4c0.6,0.7,1,1.5,1.4,2.4c0.4,0,1.1,0,1.5,0C450.4,41.4,450,40.7,449.7,40 M447.7,39c0-0.4,0-1.2,0-1.6
	c0.6,0.2,1.5,0.1,1.5,1C448.9,39,448.2,38.9,447.7,39"/>
</svg>
